{
    "name": "thegame",
    "references": [
        "GUID:1e968bb302d7f42b58f4dbbaf97a7943",
        "GUID:c6b4f291547e246eb9d2ad279f97ec00",
        "GUID:45ac3f6692f8a4fd0a9acb4074ffb768"
    ],
    "includePlatforms": [],
    "excludePlatforms": [],
    "allowUnsafeCode": false,
    "overrideReferences": false,
    "precompiledReferences": [],
    "autoReferenced": true,
    "defineConstraints": [],
    "versionDefines": [],
    "noEngineReferences": false
}